code/processor17/build/alu/alu_tb.vcd
$date
	Thu Feb 29 18:49:54 2024
$end
$version
	Icarus Verilog
$end
$timescale
	100ps
$end
$scope module alu_tb $end
$scope module dut $end
$var wire 32 ! DATA1 [31:0] $end
$var wire 32 " DATA2 [31:0] $end
$var wire 32 # INTER_AND [31:0] $end
$var wire 32 $ INTER_FWD [31:0] $end
$var wire 32 % INTER_OR [31:0] $end
$var wire 32 & INTER_XOR [31:0] $end
$var wire 6 ' SELECT [5:0] $end
$var wire 32 ( INTER_SUB [31:0] $end
$var wire 32 ) INTER_SRL [31:0] $end
$var wire 32 * INTER_SRA [31:0] $end
$var wire 32 + INTER_SLTU [31:0] $end
$var wire 32 , INTER_SLT [31:0] $end
$var wire 32 - INTER_SLL [31:0] $end
$var wire 32 . INTER_REMU [31:0] $end
$var wire 32 / INTER_REM [31:0] $end
$var wire 64 0 INTER_MULHU64 [63:0] $end
$var wire 32 1 INTER_MULHU [31:0] $end
$var wire 32 2 INTER_MULHSU [31:0] $end
$var wire 64 3 INTER_MULH64 [63:0] $end
$var wire 32 4 INTER_MULH [31:0] $end
$var wire 32 5 INTER_MUL [31:0] $end
$var wire 32 6 INTER_DIVU [31:0] $end
$var wire 32 7 INTER_DIV [31:0] $end
$var wire 32 8 INTER_ADD [31:0] $end
$var reg 64 9 INTER_MULHSU64 [63:0] $end
$var reg 32 : RESULT [31:0] $end
$upscope $end
$upscope $end
$enddefinitions $end
$comment Show the parameter values. $end
$dumpall
$end
#0
$dumpvars
bx :
bx 9
bx 8
bx 7
bx 6
bx 5
bx 4
bx 3
bx 2
bx 1
bx 0
bx /
bx .
bx -
bx ,
bx +
bx *
bx )
bx (
b0 '
bx &
bx %
b10 $
bx #
b10 "
b1 !
$end
#10
b11 :
b11 &
b11 %
b0 #
b11 8
b11111111111111111111111111111111 (
b1 ,
b1 +
#20
b100 -
b0 )
b0 *
#50
b0 2
b0 4
b0 1
b10 9
b10 5
b10 3
b10 0
#80
b0 7
b0 6
b1 /
b1 .
#100
b1 $
b1 "
b11111111111111111111111111111111 !
#110
b0 :
b1 #
b11111111111111111111111111111111 %
b11111111111111111111111111111110 &
b0 +
b0 8
b11111111111111111111111111111110 (
#120
b11111111111111111111111111111110 -
b1111111111111111111111111111111 )
b11111111111111111111111111111111 *
#150
b11111111111111111111111111111111 2
b11111111111111111111111111111111 4
b1111111111111111111111111111111111111111111111111111111111111111 9
b11111111111111111111111111111111 5
b1111111111111111111111111111111111111111111111111111111111111111 3
b11111111111111111111111111111111 0
#180
b11111111111111111111111111111111 7
b0 .
b11111111111111111111111111111111 6
b0 /
#200
b11111111111111111111111111111110 :
b1 '
b10 $
b10 "
b1 !
#210
b1 +
b0 #
b11 %
b11 &
b11 8
b11111111111111111111111111111111 (
#220
b100 :
b100 -
b0 )
b0 *
#250
b0 2
b0 4
b10 9
b10 5
b10 3
b10 0
#280
b1 /
b1 .
b0 7
b0 6
#300
b11111111111111111111111111111111 !
#310
b10 #
b11111111111111111111111111111111 %
b11111111111111111111111111111101 &
b0 +
b1 8
b11111111111111111111111111111101 (
#320
b11111111111111111111111111111100 :
b11111111111111111111111111111100 -
b111111111111111111111111111111 )
b11111111111111111111111111111111 *
#350
b11111111111111111111111111111111 2
b11111111111111111111111111111111 4
b1 1
b1111111111111111111111111111111111111111111111111111111111111110 9
b11111111111111111111111111111110 5
b1111111111111111111111111111111111111111111111111111111111111110 3
b111111111111111111111111111111110 0
#380
b1111111111111111111111111111111 6
b11111111111111111111111111111111 /
#400
b1 :
b10 '
b1 !
#410
b0 #
b11 %
b11 &
b1 +
b11 8
b11111111111111111111111111111111 (
#420
b100 -
b0 )
b0 *
#450
b0 2
b0 4
b0 1
b10 9
b10 5
b10 3
b10 0
#480
b0 6
b1 /
#500
b1 $
b1 "
b11111111111111111111111111111111 !
#510
b1 #
b11111111111111111111111111111111 %
b11111111111111111111111111111110 &
b0 +
b0 8
b11111111111111111111111111111110 (
#520
b11111111111111111111111111111110 -
b1111111111111111111111111111111 )
b11111111111111111111111111111111 *
#550
b11111111111111111111111111111111 2
b11111111111111111111111111111111 4
b1111111111111111111111111111111111111111111111111111111111111111 9
b11111111111111111111111111111111 5
b1111111111111111111111111111111111111111111111111111111111111111 3
b11111111111111111111111111111111 0
#580
b11111111111111111111111111111111 7
b0 .
b11111111111111111111111111111111 6
b0 /
#600
b0 :
b11 '
b10 $
b10 "
b1 !
#610
b1 :
b1 +
b0 #
b11 %
b11 &
b11 8
b11111111111111111111111111111111 (
#620
b100 -
b0 )
b0 *
#650
b0 2
b0 4
b10 9
b10 5
b10 3
b10 0
#680
b1 /
b1 .
b0 7
b0 6
#700
b1 $
b1 "
b11111111111111111111111111111111 !
#710
b0 :
b1 #
b11111111111111111111111111111111 %
b11111111111111111111111111111110 &
b0 +
b0 8
b11111111111111111111111111111110 (
#720
b11111111111111111111111111111110 -
b1111111111111111111111111111111 )
b11111111111111111111111111111111 *
#750
b11111111111111111111111111111111 2
b11111111111111111111111111111111 4
b1111111111111111111111111111111111111111111111111111111111111111 9
b11111111111111111111111111111111 5
b1111111111111111111111111111111111111111111111111111111111111111 3
b11111111111111111111111111111111 0
#780
b11111111111111111111111111111111 7
b0 .
b11111111111111111111111111111111 6
b0 /
#800
b11111111111111111111111111111110 :
b100 '
b10 $
b10 "
b1 !
#810
b11 :
b1 +
b0 #
b11 %
b11 &
b11 8
b11111111111111111111111111111111 (
#820
b100 -
b0 )
b0 *
#850
b0 2
b0 4
b10 9
b10 5
b10 3
b10 0
#880
b1 /
b1 .
b0 7
b0 6
#900
b1 $
b1 "
b11111111111111111111111111111111 !
#910
b11111111111111111111111111111110 :
b1 #
b11111111111111111111111111111111 %
b11111111111111111111111111111110 &
b0 +
b0 8
b11111111111111111111111111111110 (
#920
b11111111111111111111111111111110 -
b1111111111111111111111111111111 )
b11111111111111111111111111111111 *
#950
b11111111111111111111111111111111 2
b11111111111111111111111111111111 4
b1111111111111111111111111111111111111111111111111111111111111111 9
b11111111111111111111111111111111 5
b1111111111111111111111111111111111111111111111111111111111111111 3
b11111111111111111111111111111111 0
#980
b11111111111111111111111111111111 7
b0 .
b11111111111111111111111111111111 6
b0 /
#1000
b1111111111111111111111111111111 :
b101 '
b10 !
#1010
b0 #
b11 %
b11 &
b0 ,
b11 8
b1 (
#1020
b1 :
b100 -
b1 )
b1 *
#1050
b0 2
b0 4
b10 9
b10 5
b10 3
b10 0
#1080
b10 7
b10 6
#1100
b11111111111111111111111111111111 !
#1110
b1 #
b11111111111111111111111111111111 %
b11111111111111111111111111111110 &
b1 ,
b0 8
b11111111111111111111111111111110 (
#1120
b1111111111111111111111111111111 :
b11111111111111111111111111111110 -
b1111111111111111111111111111111 )
b11111111111111111111111111111111 *
#1150
b11111111111111111111111111111111 2
b11111111111111111111111111111111 4
b1111111111111111111111111111111111111111111111111111111111111111 9
b11111111111111111111111111111111 5
b1111111111111111111111111111111111111111111111111111111111111111 3
b11111111111111111111111111111111 0
#1180
b11111111111111111111111111111111 7
b11111111111111111111111111111111 6
#1200
b11111111111111111111111111111111 :
b110 '
b10 $
b10 "
b1 !
#1210
b11 :
b1 +
b0 #
b11 %
b11 &
b11 8
b11111111111111111111111111111111 (
#1220
b100 -
b0 )
b0 *
#1250
b0 2
b0 4
b10 9
b10 5
b10 3
b10 0
#1280
b1 /
b1 .
b0 7
b0 6
#1300
b0 $
b0 "
b11111111111111111111111111111111 !
#1310
b11111111111111111111111111111111 :
b11111111111111111111111111111111 %
b11111111111111111111111111111111 &
b0 +
b11111111111111111111111111111111 8
#1320
b11111111111111111111111111111111 -
b11111111111111111111111111111111 )
b11111111111111111111111111111111 *
#1350
b0 9
b0 5
b0 3
b0 0
#1380
bx 7
bx .
bx 6
bx /
#1400
b0 :
b111 '
b10 $
b10 "
b1 !
#1410
b1 +
b11 %
b11 &
b11 8
#1420
b100 -
b0 )
b0 *
#1450
b10 9
b10 5
b10 3
b10 0
#1480
b0 7
b0 6
b1 /
b1 .
#1500
b1 $
b1 "
b11111111111111111111111111111111 !
#1510
b1 :
b1 #
b11111111111111111111111111111111 %
b11111111111111111111111111111110 &
b0 +
b0 8
b11111111111111111111111111111110 (
#1520
b11111111111111111111111111111110 -
b1111111111111111111111111111111 )
b11111111111111111111111111111111 *
#1550
b11111111111111111111111111111111 2
b11111111111111111111111111111111 4
b1111111111111111111111111111111111111111111111111111111111111111 9
b11111111111111111111111111111111 5
b1111111111111111111111111111111111111111111111111111111111111111 3
b11111111111111111111111111111111 0
#1580
b11111111111111111111111111111111 7
b0 .
b11111111111111111111111111111111 6
b0 /
#1600
b11111111111111111111111111111111 :
b1000 '
b10110110110110110110110110110111 $
b10110110110110110110110110110111 "
b111111000000000 !
#1610
b1 +
b110110000000000 #
b10110110110110110111111110110111 %
b10110110110110110001001110110111 &
b0 ,
b10110110110110111110101110110111 8
b1001001001001010001000001001001 (
#1620
b0 -
b0 )
b0 *
#1650
b101101000000000 2
b1001000000000 :
b11111111111111111101110000000000 4
b101101000000000 1
b10110100000000000000000000000000001001000000000 9
b1001000000000 5
b1111111111111111110111000000000000000000000000000001001000000000 3
b10110100000000000000000000000000001001000000000 0
#1680
b111111000000000 /
b111111000000000 .
b0 7
b0 6
#1700
b11111111111111111111111111111111 $
b11111111111111111111111111111111 "
b11111111111111111111111111111111 !
#1710
b11111111111111111111111111111111 #
b11111111111111111111111111111111 %
b0 &
b0 +
b11111111111111111111111111111110 8
b0 (
#1720
b11111111111111111111111111111111 *
#1750
b1 2
b1 :
b0 4
b11111111111111111111111111111110 1
b111111111111111111111111111111111 9
b1 5
b1 3
b1111111111111111111111111111111000000000000000000000000000000001 0
#1780
b1 7
b1 6
b0 /
b0 .
#1800
b0 :
b1001 '
b101111111001111101 $
b101111111001111101 "
b10101010101010101010101010101011 !
#1810
b101010101000101001 #
b10101010101010101111111011111111 %
b10101010101010000101010011010110 &
b1 ,
b10101010101011011010100100101000 8
b10101010101001111010110000101110 (
#1850
b11111111111111110000000010000001 2
b11111111111111110000000010000001 :
b11111111111111110000000010000001 4
b11111111011111110 1
b1111111111111111000000001000000100000000000000001111111101111111 9
b1111111101111111 5
b1111111111111111000000001000000100000000000000001111111101111111 3
b1111111101111111000000000000000001111111101111111 0
#1880
b11111111111111111001010100101011 /
b11111111111111111110001110000000 7
b11100100000000 6
b1101010110101011 .
#1900
b11111111111111111111111111111111 $
b11111111111111111111111111111111 "
b11111111111111111111111111111111 !
#1910
b0 ,
b11111111111111111111111111111111 #
b11111111111111111111111111111111 %
b0 &
b11111111111111111111111111111110 8
b0 (
#1950
b1 2
b0 :
b0 4
b11111111111111111111111111111110 1
b111111111111111111111111111111111 9
b1 5
b1 3
b1111111111111111111111111111111000000000000000000000000000000001 0
#1980
b1 7
b1 6
b0 /
b0 .
#2000
b1 :
b1010 '
b11111111111111111000000000000000 $
b11111111111111111000000000000000 "
b10000000000000000000000000000000 !
#2010
b10000000000000000000000000000000 #
b11111111111111111000000000000000 %
b1111111111111111000000000000000 &
b1 ,
b1 +
b1111111111111111000000000000000 8
b10000000000000001000000000000000 (
#2050
b10000000000000000100000000000000 :
b10000000000000000100000000000000 2
b100000000000000 4
b1111111111111111100000000000000 1
b1000000000000000010000000000000000000000000000000000000000000000 9
b0 5
b10000000000000000000000000000000000000000000000 3
b111111111111111110000000000000000000000000000000000000000000000 0
#2080
b10000000000000000 7
b0 6
b10000000000000000000000000000000 .
#2100
b101111111001111101 $
b101111111001111101 "
b10101010101010101010101010101011 !
#2110
b0 +
b101010101000101001 #
b10101010101010101111111011111111 %
b10101010101010000101010011010110 &
b10101010101011011010100100101000 8
b10101010101001111010110000101110 (
#2150
b11111111111111110000000010000001 :
b11111111111111110000000010000001 2
b11111111111111110000000010000001 4
b11111111011111110 1
b1111111111111111000000001000000100000000000000001111111101111111 9
b1111111101111111 5
b1111111111111111000000001000000100000000000000001111111101111111 3
b1111111101111111000000000000000001111111101111111 0
#2180
b11100100000000 6
b11111111111111111110001110000000 7
b11111111111111111001010100101011 /
b1101010110101011 .
#2200
b10101010101010101010101010101011 $
b10101010101010101010101010101011 "
b101111111001111101 !
#2210
b1 +
b0 ,
b1010101010110000101001111010010 (
#2220
b0 *
#2250
b11111111011111110 :
b11111111011111110 2
b1111111101111111000000000000000001111111101111111 9
#2280
b0 7
b0 6
b101111111001111101 /
b101111111001111101 .
#2300
b1011 '
b101111111001111101 $
b101111111001111101 "
b10101010101010101010101010101011 !
#2310
b1 ,
b0 +
b10101010101001111010110000101110 (
#2320
b11111111111111111111111111111111 *
#2350
b11111111111111110000000010000001 2
b1111111111111111000000001000000100000000000000001111111101111111 9
#2380
b11111111111111111110001110000000 7
b11100100000000 6
b11111111111111111001010100101011 /
b1101010110101011 .
#2400
b11111111111111111000000000000000 $
b11111111111111111000000000000000 "
b10000000000000000000000000000000 !
#2410
b1 +
b10000000000000000000000000000000 #
b11111111111111111000000000000000 %
b1111111111111111000000000000000 &
b1111111111111111000000000000000 8
b10000000000000001000000000000000 (
#2450
b10000000000000000100000000000000 2
b1111111111111111100000000000000 :
b100000000000000 4
b1111111111111111100000000000000 1
b1000000000000000010000000000000000000000000000000000000000000000 9
b0 5
b10000000000000000000000000000000000000000000000 3
b111111111111111110000000000000000000000000000000000000000000000 0
#2480
b10000000000000000 7
b0 6
b0 /
b10000000000000000000000000000000 .
#2500
b10000000000000000 :
b1100 '
b10 $
b10 "
b11 !
#2510
b0 +
b10 #
b11 %
b1 &
b0 ,
b101 8
b1 (
#2520
b1100 -
b0 *
#2550
b0 2
b0 4
b0 1
b110 9
b110 5
b110 3
b110 0
#2580
b1 :
b1 6
b1 7
b1 /
b1 .
#2600
b1 $
b1 "
b11111111111111111111111111111111 !
#2610
b1 #
b11111111111111111111111111111111 %
b11111111111111111111111111111110 &
b1 ,
b0 8
b11111111111111111111111111111110 (
#2620
b11111111111111111111111111111110 -
b1111111111111111111111111111111 )
b11111111111111111111111111111111 *
#2650
b11111111111111111111111111111111 2
b11111111111111111111111111111111 4
b1111111111111111111111111111111111111111111111111111111111111111 9
b11111111111111111111111111111111 5
b1111111111111111111111111111111111111111111111111111111111111111 3
b11111111111111111111111111111111 0
#2680
b11111111111111111111111111111111 :
b0 .
b11111111111111111111111111111111 7
b11111111111111111111111111111111 6
b0 /
#2700
b1101 '
b10 $
b10 "
b11 !
#2710
b10 #
b11 %
b1 &
b0 ,
b101 8
b1 (
#2720
b1100 -
b0 )
b0 *
#2750
b0 2
b0 4
b110 9
b110 5
b110 3
b110 0
#2780
b1 :
b1 /
b1 .
b1 7
b1 6
#2800
b1 $
b1 "
b11111111111111111111111111111111 !
#2810
b1 #
b11111111111111111111111111111111 %
b11111111111111111111111111111110 &
b1 ,
b0 8
b11111111111111111111111111111110 (
#2820
b11111111111111111111111111111110 -
b1111111111111111111111111111111 )
b11111111111111111111111111111111 *
#2850
b11111111111111111111111111111111 2
b11111111111111111111111111111111 4
b1111111111111111111111111111111111111111111111111111111111111111 9
b11111111111111111111111111111111 5
b1111111111111111111111111111111111111111111111111111111111111111 3
b11111111111111111111111111111111 0
#2880
b11111111111111111111111111111111 :
b0 .
b11111111111111111111111111111111 7
b11111111111111111111111111111111 6
b0 /
#2900
b0 :
b1110 '
b10 $
b10 "
b11 !
#2910
b10 #
b11 %
b1 &
b0 ,
b101 8
b1 (
#2920
b1100 -
b0 )
b0 *
#2950
b0 2
b0 4
b110 9
b110 5
b110 3
b110 0
#2980
b1 :
b1 /
b1 .
b1 7
b1 6
#3000
b1 $
b1 "
b11111111111111111111111111111111 !
#3010
b1 #
b11111111111111111111111111111111 %
b11111111111111111111111111111110 &
b1 ,
b0 8
b11111111111111111111111111111110 (
#3020
b11111111111111111111111111111110 -
b1111111111111111111111111111111 )
b11111111111111111111111111111111 *
#3050
b11111111111111111111111111111111 2
b11111111111111111111111111111111 4
b1111111111111111111111111111111111111111111111111111111111111111 9
b11111111111111111111111111111111 5
b1111111111111111111111111111111111111111111111111111111111111111 3
b11111111111111111111111111111111 0
#3080
b0 :
b0 .
b11111111111111111111111111111111 7
b11111111111111111111111111111111 6
b0 /
#3100
b1111 '
b10 $
b10 "
b11 !
#3110
b10 #
b11 %
b1 &
b0 ,
b101 8
b1 (
#3120
b1100 -
b0 )
b0 *
#3150
b0 2
b0 4
b110 9
b110 5
b110 3
b110 0
#3180
b1 :
b1 /
b1 .
b1 7
b1 6
#3200
b1 $
b1 "
b11111111111111111111111111111111 !
#3210
b1 #
b11111111111111111111111111111111 %
b11111111111111111111111111111110 &
b1 ,
b0 8
b11111111111111111111111111111110 (
#3220
b11111111111111111111111111111110 -
b1111111111111111111111111111111 )
b11111111111111111111111111111111 *
#3250
b11111111111111111111111111111111 2
b11111111111111111111111111111111 4
b1111111111111111111111111111111111111111111111111111111111111111 9
b11111111111111111111111111111111 5
b1111111111111111111111111111111111111111111111111111111111111111 3
b11111111111111111111111111111111 0
#3280
b0 :
b0 .
b11111111111111111111111111111111 7
b11111111111111111111111111111111 6
b0 /
#3300
b11111111111111111111111111111110 :
b10000 '
b10 !
#3310
b1 :
b0 #
b11 %
b11 &
b0 ,
b11 8
b1 (
#3320
b100 -
b1 )
b1 *
#3350
b0 2
b0 4
b10 9
b10 5
b10 3
b10 0
#3380
b10 7
b10 6
#3400
b11111111111111111111111111111111 !
#3410
b11111111111111111111111111111110 :
b1 #
b11111111111111111111111111111111 %
b11111111111111111111111111111110 &
b1 ,
b0 8
b11111111111111111111111111111110 (
#3420
b11111111111111111111111111111110 -
b1111111111111111111111111111111 )
b11111111111111111111111111111111 *
#3450
b11111111111111111111111111111111 2
b11111111111111111111111111111111 4
b1111111111111111111111111111111111111111111111111111111111111111 9
b11111111111111111111111111111111 5
b1111111111111111111111111111111111111111111111111111111111111111 3
b11111111111111111111111111111111 0
#3480
b11111111111111111111111111111111 7
b11111111111111111111111111111111 6
#3500
b11111111111111111111111111111111 :
b10101 '
b10 !
#3510
b0 #
b11 %
b11 &
b0 ,
b11 8
b1 (
#3520
b1 :
b100 -
b1 )
b1 *
#3550
b0 2
b0 4
b10 9
b10 5
b10 3
b10 0
#3580
b10 7
b10 6
#3600
b11111111111111111111111111111111 !
#3610
b1 #
b11111111111111111111111111111111 %
b11111111111111111111111111111110 &
b1 ,
b0 8
b11111111111111111111111111111110 (
#3620
b11111111111111111111111111111111 :
b11111111111111111111111111111110 -
b1111111111111111111111111111111 )
b11111111111111111111111111111111 *
#3650
b11111111111111111111111111111111 2
b11111111111111111111111111111111 4
b1111111111111111111111111111111111111111111111111111111111111111 9
b11111111111111111111111111111111 5
b1111111111111111111111111111111111111111111111111111111111111111 3
b11111111111111111111111111111111 0
#3680
b11111111111111111111111111111111 7
b11111111111111111111111111111111 6
#3700
b0 :
b11zzz '
b0 $
b0 "
b0 !
#3710
b0 ,
b0 #
b0 %
b0 &
b0 (
#3720
b0 -
b0 )
b0 *
#3750
b0 2
b0 4
b0 9
b0 5
b0 3
b0 0
#3780
bx /
bx .
bx 7
bx 6
#3800
b11111111111111111111111111111111 :
b11111111111111111111111111111111 $
b11111111111111111111111111111111 "
b11111111111111111111111111111111 !
#3810
b11111111111111111111111111111111 #
b11111111111111111111111111111111 %
b11111111111111111111111111111110 8
#3820
b11111111111111111111111111111111 *
#3850
b1 2
b11111111111111111111111111111110 1
b111111111111111111111111111111111 9
b1 5
b1 3
b1111111111111111111111111111111000000000000000000000000000000001 0
#3880
b1 7
b1 6
b0 /
b0 .
