code/20_neuron_new/neuron.vcd
$date
	Sat Apr 12 15:20:38 2025
$end
$version
	Icarus Verilog
$end
$timescale
	100ps
$end
$scope module neuron $end
$var wire 1 ! spike $end
$var wire 32 " output_potential_decay [31:0] $end
$var wire 32 # mult_output [31:0] $end
$var wire 32 $ final_potential [31:0] $end
$var reg 1 % clk $end
$var reg 12 & source_address [11:0] $end
$scope module m0 $end
$var wire 1 % clk $end
$var wire 12 ' source_address [11:0] $end
$var reg 32 ( accumulated_weight [31:0] $end
$var reg 32 ) considered_weight [31:0] $end
$var reg 5 * incomingspikes [4:0] $end
$var reg 32 + mult_output [31:0] $end
$var reg 5 , spikes [4:0] $end
$upscope $end
$scope module pa0 $end
$var wire 32 - input_weight [31:0] $end
$var wire 32 . weight_added [31:0] $end
$var wire 32 / reset_value [31:0] $end
$var wire 1 0 greater $end
$var wire 32 1 decayed_potential [31:0] $end
$var wire 1 2 Exception1 $end
$var wire 1 3 Exception $end
$var reg 32 4 final_potential [31:0] $end
$var reg 2 5 model [1:0] $end
$var reg 1 ! spike $end
$var reg 32 6 v_threshold [31:0] $end
$scope module Addition_Subtraction_1 $end
$var wire 1 7 AddBar_Sub $end
$var wire 1 2 Exception $end
$var wire 32 8 b_operand [31:0] $end
$var wire 1 9 operation_sub_addBar $end
$var wire 1 : output_sign $end
$var wire 25 ; subtraction_diff [24:0] $end
$var wire 31 < sub_diff [30:0] $end
$var wire 24 = significand_sub_complement [23:0] $end
$var wire 25 > significand_sub [24:0] $end
$var wire 24 ? significand_b_add_sub [23:0] $end
$var wire 24 @ significand_b [23:0] $end
$var wire 25 A significand_add [24:0] $end
$var wire 24 B significand_a [23:0] $end
$var wire 32 C result [31:0] $end
$var wire 1 D perform $end
$var wire 32 E operand_b [31:0] $end
$var wire 32 F operand_a [31:0] $end
$var wire 8 G exponent_sub [7:0] $end
$var wire 8 H exponent_diff [7:0] $end
$var wire 8 I exponent_b_add_sub [7:0] $end
$var wire 31 J add_sum [30:0] $end
$var wire 32 K a_operand [31:0] $end
$var wire 1 L Comp_enable $end
$scope module pe $end
$var wire 8 M Exponent_a [7:0] $end
$var wire 25 N significand [24:0] $end
$var wire 8 O Exponent_sub [7:0] $end
$var reg 25 P Significand [24:0] $end
$var reg 5 Q shift [4:0] $end
$upscope $end
$upscope $end
$scope module Addition_Subtraction_2 $end
$var wire 1 R AddBar_Sub $end
$var wire 1 3 Exception $end
$var wire 32 S a_operand [31:0] $end
$var wire 1 T operation_sub_addBar $end
$var wire 1 U output_sign $end
$var wire 25 V subtraction_diff [24:0] $end
$var wire 31 W sub_diff [30:0] $end
$var wire 24 X significand_sub_complement [23:0] $end
$var wire 25 Y significand_sub [24:0] $end
$var wire 24 Z significand_b_add_sub [23:0] $end
$var wire 24 [ significand_b [23:0] $end
$var wire 25 \ significand_add [24:0] $end
$var wire 24 ] significand_a [23:0] $end
$var wire 32 ^ result [31:0] $end
$var wire 1 _ perform $end
$var wire 32 ` operand_b [31:0] $end
$var wire 32 a operand_a [31:0] $end
$var wire 8 b exponent_sub [7:0] $end
$var wire 8 c exponent_diff [7:0] $end
$var wire 8 d exponent_b_add_sub [7:0] $end
$var wire 32 e b_operand [31:0] $end
$var wire 31 f add_sum [30:0] $end
$var wire 1 g Comp_enable $end
$scope module pe $end
$var wire 8 h Exponent_a [7:0] $end
$var wire 25 i significand [24:0] $end
$var wire 8 j Exponent_sub [7:0] $end
$var reg 25 k Significand [24:0] $end
$var reg 5 l shift [4:0] $end
$upscope $end
$upscope $end
$scope module comparator_2 $end
$var wire 32 m a_operand [31:0] $end
$var wire 32 n b_operand [31:0] $end
$var wire 32 o result [31:0] $end
$var wire 1 p Exception $end
$var reg 1 0 greater $end
$var reg 1 q sign $end
$scope module Addition_Subtraction_1 $end
$var wire 1 r AddBar_Sub $end
$var wire 1 p Exception $end
$var wire 32 s a_operand [31:0] $end
$var wire 32 t b_operand [31:0] $end
$var wire 1 u operation_sub_addBar $end
$var wire 1 v output_sign $end
$var wire 25 w subtraction_diff [24:0] $end
$var wire 31 x sub_diff [30:0] $end
$var wire 24 y significand_sub_complement [23:0] $end
$var wire 25 z significand_sub [24:0] $end
$var wire 24 { significand_b_add_sub [23:0] $end
$var wire 24 | significand_b [23:0] $end
$var wire 25 } significand_add [24:0] $end
$var wire 24 ~ significand_a [23:0] $end
$var wire 32 !" result [31:0] $end
$var wire 1 "" perform $end
$var wire 32 #" operand_b [31:0] $end
$var wire 32 $" operand_a [31:0] $end
$var wire 8 %" exponent_sub [7:0] $end
$var wire 8 &" exponent_diff [7:0] $end
$var wire 8 '" exponent_b_add_sub [7:0] $end
$var wire 31 (" add_sum [30:0] $end
$var wire 1 )" Comp_enable $end
$scope module pe $end
$var wire 8 *" Exponent_a [7:0] $end
$var wire 25 +" significand [24:0] $end
$var wire 8 ," Exponent_sub [7:0] $end
$var reg 25 -" Significand [24:0] $end
$var reg 5 ." shift [4:0] $end
$upscope $end
$upscope $end
$upscope $end
$upscope $end
$scope module pd0 $end
$var wire 1 % clk $end
$var wire 32 /" new_potential [31:0] $end
$var wire 32 0" result_divide_by_2_plus_4 [31:0] $end
$var wire 1 1" Exception $end
$var reg 8 2" adjusted_exponent [7:0] $end
$var reg 4 3" decay_rate [3:0] $end
$var reg 8 4" exponent [7:0] $end
$var reg 8 5" exponent_divided_by_2 [7:0] $end
$var reg 8 6" exponent_divided_by_4 [7:0] $end
$var reg 23 7" mantissa [22:0] $end
$var reg 32 8" membrane_potential [31:0] $end
$var reg 2 9" model [1:0] $end
$var reg 12 :" neuron_address [11:0] $end
$var reg 32 ;" number_divided_by_2 [31:0] $end
$var reg 32 <" number_divided_by_4 [31:0] $end
$var reg 32 =" output_potential_decay [31:0] $end
$var reg 32 >" output_potential_decay_LIF [31:0] $end
$var reg 2 ?" sign [1:0] $end
$scope module Addition_Subtraction_1 $end
$var wire 1 @" AddBar_Sub $end
$var wire 1 1" Exception $end
$var wire 32 A" a_operand [31:0] $end
$var wire 32 B" b_operand [31:0] $end
$var wire 1 C" operation_sub_addBar $end
$var wire 1 D" output_sign $end
$var wire 25 E" subtraction_diff [24:0] $end
$var wire 31 F" sub_diff [30:0] $end
$var wire 24 G" significand_sub_complement [23:0] $end
$var wire 25 H" significand_sub [24:0] $end
$var wire 24 I" significand_b_add_sub [23:0] $end
$var wire 24 J" significand_b [23:0] $end
$var wire 25 K" significand_add [24:0] $end
$var wire 24 L" significand_a [23:0] $end
$var wire 32 M" result [31:0] $end
$var wire 1 N" perform $end
$var wire 32 O" operand_b [31:0] $end
$var wire 32 P" operand_a [31:0] $end
$var wire 8 Q" exponent_sub [7:0] $end
$var wire 8 R" exponent_diff [7:0] $end
$var wire 8 S" exponent_b_add_sub [7:0] $end
$var wire 31 T" add_sum [30:0] $end
$var wire 1 U" Comp_enable $end
$scope module pe $end
$var wire 8 V" Exponent_a [7:0] $end
$var wire 25 W" significand [24:0] $end
$var wire 8 X" Exponent_sub [7:0] $end
$var reg 25 Y" Significand [24:0] $end
$var reg 5 Z" shift [4:0] $end
$upscope $end
$upscope $end
$upscope $end
$upscope $end
$enddefinitions $end
#0
$dumpvars
bx Z"
bx Y"
bx X"
bx W"
bx V"
xU"
bx T"
bx S"
bx R"
bx Q"
bx P"
bx O"
xN"
bx M"
bx L"
bx K"
bx J"
bx I"
bx H"
bx G"
bx F"
bx E"
xD"
xC"
bx B"
bx A"
0@"
bx ?"
bx >"
bx ="
bx <"
bx ;"
b0 :"
b0 9"
b1000001110111101011100001010010 8"
bx 7"
bx 6"
bx 5"
bx 4"
b10 3"
bx 2"
x1"
bx 0"
bx /"
bx ."
bx -"
bx ,"
bx +"
bx *"
x)"
bx ("
bx '"
bx &"
bx %"
bx $"
bx #"
x""
bx !"
bx ~
bx }
bx |
bx {
bx z
bx y
bx x
bx w
xv
xu
b1000010001000000000000000000000 t
bx s
1r
xq
xp
bx o
b1000010001000000000000000000000 n
bx m
bx l
bx k
bx j
bx i
bx h
xg
bx f
bx e
bx d
bx c
bx b
bx a
bx `
x_
bx ^
bx ]
bx \
bx [
bx Z
bx Y
bx X
bx W
bx V
xU
xT
bx S
0R
bx Q
bx P
bx O
bx N
bx M
xL
bx K
bx J
bx I
bx H
bx G
bx F
bx E
xD
bx C
bx B
bx A
bx @
bx ?
bx >
bx =
bx <
bx ;
x:
x9
b1000010001000000000000000000000 8
17
b1000010001000000000000000000000 6
b0 5
bx 4
x3
x2
bx 1
x0
bx /
bx .
bx -
bx ,
bx +
b0 *
bx )
bx (
b0 '
b0 &
0%
bx $
bx #
bx "
0!
$end
#50
b1000001110100001010001111011000 x
b10000011 %"
b10000011 ,"
b1 ."
b110100001010001111011000 w
b110100001010001111011000 -"
b1011010000101000111101100 z
b1011010000101000111101100 +"
b1000001110100001010001111011000 <
b10000011 G
b10000011 O
b1 Q
b110100001010001111011000 ;
b110100001010001111011000 P
b110010000101000111101100 y
00
1q
b1011010000101000111101100 >
b1011010000101000111101100 N
b11000001110100001010001111011000 o
b11000001110100001010001111011000 !"
b110010000101000111101100 =
b11000001110100001010001111011000 /
b11000001110100001010001111011000 C
b1101111010111000010100 {
1""
b10000100 '"
b10 &"
1v
1)"
b1101111010111000010100 ?
1D
b10000100 I
b10 H
1:
b1000010000000000000000000000000 ("
b1000010000000000000000000000000 J
1L
b0 }
b0 A
b110111101011100001010010 |
0p
b101000000000000000000000 ~
b110111101011100001010010 @
02
b101000000000000000000000 B
b10000100 *"
b10000100 M
0u
09
b1000001001000010100011110101110 W
b10000010 b
b10000010 j
b0 l
b1001000010100011110101110 V
b1001000010100011110101110 k
b110111101011100001010010 Y
b110111101011100001010010 i
b1000001010111101011100001010010 #"
b1000010001000000000000000000000 $"
b1000001010111101011100001010010 E
b1000010001000000000000000000000 F
b1000001010111101011100001010010 8"
b0 X
b110111101011100001010010 \
b1000001010111101011100001010010 $
b1000001010111101011100001010010 4
b1000001010111101011100001010010 /"
b1000001010111101011100001010010 f
b1000001010111101011100001010010 .
b1000001010111101011100001010010 K
b1000001010111101011100001010010 ^
b1000001010111101011100001010010 m
b1000001010111101011100001010010 s
1T
b0 Z
1_
b10000010 d
b10000010 c
b0 [
03
b110111101011100001010010 ]
1g
0U
b10000010 h
b0 `
b1000001010111101011100001010010 a
b1000001010111101011100001010010 "
b1000001010111101011100001010010 1
b1000001010111101011100001010010 e
b1000001010111101011100001010010 ="
b0 #
b0 +
b0 -
b0 S
b0 )
b0 (
b0 ,
b1000001010111101011100001010010 >"
b10000010 2"
b10111101011100001010010 7"
b10000011 4"
b0 ?"
1%
#100
0%
#150
b11000010000001000010100011110110 o
b11000010000001000010100011110110 !"
b11000010000001000010100011110110 /
b11000010000001000010100011110110 C
b1000010000001000010100011110110 x
b10000100 %"
b10000100 ,"
b0 ."
b1100001000010100011110110 w
b1100001000010100011110110 -"
b1000010000001000010100011110110 <
b10000100 G
b10000100 O
b0 Q
b1100001000010100011110110 ;
b1100001000010100011110110 P
b1100001000010100011110110 z
b1100001000010100011110110 +"
b1100001000010100011110110 >
b1100001000010100011110110 N
b111001000010100011110110 y
b111001000010100011110110 =
b110111101011100001010 {
b11 &"
1""
b10000100 '"
b110111101011100001010 ?
b11 H
1D
b10000100 I
b1000000110111101011100001010010 #"
b1000000110111101011100001010010 E
b1000000110111101011100001010010 8"
b1000000110111101011100001010010 $
b1000000110111101011100001010010 4
b1000000110111101011100001010010 /"
b1000000110111101011100001010010 .
b1000000110111101011100001010010 K
b1000000110111101011100001010010 ^
b1000000110111101011100001010010 m
b1000000110111101011100001010010 s
b1000000110111101011100001010010 f
b10000001 d
b10000001 c
1_
b1000000101000010100011110101110 W
b10000001 b
b10000001 j
b10000001 h
b1000000110111101011100001010010 a
b1000000110111101011100001010010 "
b1000000110111101011100001010010 1
b1000000110111101011100001010010 e
b1000000110111101011100001010010 ="
b1000000110111101011100001010010 >"
b10000001 2"
b10000010 4"
1%
#200
0%
#210
b10000 *
b111 &
b111 '
#250
1!
b1 ."
10
0q
b1000010010010100101110000100110 o
b1000010010010100101110000100110 !"
b1 Q
b101000000000000000000000 |
b101101010010111000010011 ~
b1000010100000000000000000000000 ("
b110010100101110000100110 w
b110010100101110000100110 -"
b110010100101110000100110 ;
b110010100101110000100110 P
b1000010010010100101110000100110 /
b1000010010010100101110000100110 C
b1000010010010100101110000100110 x
b10000100 %"
b10000100 ,"
b10000101 *"
0v
b1011001010010111000010011 z
b1011001010010111000010011 +"
b101000000000000000000000 @
b101101010010111000010011 B
b1011001010010111000010011 >
b1011001010010111000010011 N
b1000010100000000000000000000000 J
b101100000000000000000000 y
b101100000000000000000000 =
b1000010101101010010111000010011 $"
0)"
b1000010010010100101110000100110 <
b10000100 G
b10000100 O
b10000101 M
0:
b1000010101101010010111000010011 F
0L
b10100000000000000000000 {
b1 &"
1""
b10000101 '"
b10100000000000000000000 ?
b1 H
1D
b10000101 I
b1000010001000000000000000000000 #"
b1000010001000000000000000000000 E
b1000010010010100101110000100110 8"
b1010100011100011110101111 V
b1010100011100011110101111 k
b1000010010010100101110000100110 $
b1000010010010100101110000100110 4
b1000010010010100101110000100110 /"
b101011100011100001010001 Y
b101011100011100001010001 i
b1000010101101010010111000010011 .
b1000010101101010010111000010011 K
b1000010101101010010111000010011 ^
b1000010101101010010111000010011 m
b1000010101101010010111000010011 s
b101011100011100001010001 ]
b101101010010111000010011 \
b1101111010111000010 Z
b110111101011100001010010 [
b1000010101101010010111000010011 f
0g
b10000101 d
b101 c
1_
b1000010110100011100011110101111 W
b10000101 b
b10000101 j
b10000101 h
b1000000010111101011100001010010 `
b1000010101011100011100001010001 a
b1000000010111101011100001010010 "
b1000000010111101011100001010010 1
b1000000010111101011100001010010 e
b1000000010111101011100001010010 ="
b0 *
b1000010101011100011100001010001 #
b1000010101011100011100001010001 +
b1000010101011100011100001010001 -
b1000010101011100011100001010001 S
b0 ,
b1000000010111101011100001010010 >"
b10000000 2"
b10000001 4"
b0 &
b0 '
1%
#300
0%
#350
0!
00
1q
b1000001110010100101110000100110 8"
b10 ."
b111010110100011110110100 w
b111010110100011110110100 -"
b10 Q
b111010110100011110110100 ;
b111010110100011110110100 P
b1000001110010100101110000100110 $
b1000001110010100101110000100110 4
b1000001110010100101110000100110 /"
b110010100101110000100110 |
b1001110101101000111101101 z
b1001110101101000111101101 +"
b100110101101000111101101 y
b11000001011010110100011110110100 o
b11000001011010110100011110110100 !"
b1001110101101000111101101 >
b1001110101101000111101101 N
b100110101101000111101101 =
b11000001011010110100011110110100 /
b11000001011010110100011110110100 C
1v
b101000000000000000000000 ~
b1000010000000000000000000000000 ("
b110010100101110000100110 @
b101000000000000000000000 B
b1000010000000000000000000000000 J
b1000001110010100101110000100110 #"
1)"
b11001010010111000010011 {
b10000100 '"
b1 &"
1""
b1000001011010110100011110110100 x
b10000010 %"
b10000010 ,"
b10000100 *"
b11001010010111000010011 ?
b10000100 I
b1 H
1D
b1000001011010110100011110110100 <
b10000010 G
b10000010 O
b10000100 M
1:
b1000010001000000000000000000000 $"
b1000001110010100101110000100110 E
b1000010001000000000000000000000 F
1L
b1001101011010001111011010 V
b1001101011010001111011010 k
b1000001110010100101110000100110 .
b1000001110010100101110000100110 K
b1000001110010100101110000100110 ^
b1000001110010100101110000100110 m
b1000001110010100101110000100110 s
b0 [
b110010100101110000100110 Y
b110010100101110000100110 i
b110010100101110000100110 ]
b110010100101110000100110 \
b1000001110010100101110000100110 f
b0 `
1g
b0 Z
b10000011 d
b10000011 c
1_
b1000001101101011010001111011010 W
b10000011 b
b10000011 j
b10000011 h
b1000001110010100101110000100110 a
b1000001110010100101110000100110 "
b1000001110010100101110000100110 1
b1000001110010100101110000100110 e
b1000001110010100101110000100110 ="
b1000001110010100101110000100110 >"
b10000011 2"
b10010100101110000100110 7"
b10000100 4"
b0 #
b0 +
b0 -
b0 S
1%
#400
0%
#450
b11000001110110101101000111101110 o
b11000001110110101101000111101110 !"
b11000001110110101101000111101110 /
b11000001110110101101000111101110 C
b1000001110110101101000111101110 x
b10000011 %"
b10000011 ,"
b1 ."
b110110101101000111101110 w
b110110101101000111101110 -"
b1000001110110101101000111101110 <
b10000011 G
b10000011 O
b1 Q
b110110101101000111101110 ;
b110110101101000111101110 P
b1011011010110100011110111 z
b1011011010110100011110111 +"
b1011011010110100011110111 >
b1011011010110100011110111 N
b110011010110100011110111 y
b110011010110100011110111 =
b1100101001011100001001 {
b10 &"
1""
b10000100 '"
b1100101001011100001001 ?
b10 H
1D
b10000100 I
b1000001010010100101110000100110 #"
b1000001010010100101110000100110 E
b1000001010010100101110000100110 8"
b1000001010010100101110000100110 $
b1000001010010100101110000100110 4
b1000001010010100101110000100110 /"
b1000001010010100101110000100110 .
b1000001010010100101110000100110 K
b1000001010010100101110000100110 ^
b1000001010010100101110000100110 m
b1000001010010100101110000100110 s
b1000001010010100101110000100110 f
b10000010 d
b10000010 c
1_
b1000001001101011010001111011010 W
b10000010 b
b10000010 j
b10000010 h
b1000001010010100101110000100110 a
b1000001010010100101110000100110 "
b1000001010010100101110000100110 1
b1000001010010100101110000100110 e
b1000001010010100101110000100110 ="
b1000001010010100101110000100110 >"
b10000010 2"
b10000011 4"
1%
#500
0%
#550
b11000010000001101011010001111100 o
b11000010000001101011010001111100 !"
b11000010000001101011010001111100 /
b11000010000001101011010001111100 C
b1000010000001101011010001111100 x
b10000100 %"
b10000100 ,"
b0 ."
b1100001101011010001111100 w
b1100001101011010001111100 -"
b1000010000001101011010001111100 <
b10000100 G
b10000100 O
b0 Q
b1100001101011010001111100 ;
b1100001101011010001111100 P
b1100001101011010001111100 z
b1100001101011010001111100 +"
b1100001101011010001111100 >
b1100001101011010001111100 N
b111001101011010001111100 y
b111001101011010001111100 =
b110010100101110000100 {
b11 &"
1""
b10000100 '"
b110010100101110000100 ?
b11 H
1D
b10000100 I
b1000000110010100101110000100110 #"
b1000000110010100101110000100110 E
b1000000110010100101110000100110 8"
b1000000110010100101110000100110 $
b1000000110010100101110000100110 4
b1000000110010100101110000100110 /"
b1000000110010100101110000100110 .
b1000000110010100101110000100110 K
b1000000110010100101110000100110 ^
b1000000110010100101110000100110 m
b1000000110010100101110000100110 s
b1000000110010100101110000100110 f
b10000001 d
b10000001 c
1_
b1000000101101011010001111011010 W
b10000001 b
b10000001 j
b10000001 h
b1000000110010100101110000100110 a
b1000000110010100101110000100110 "
b1000000110010100101110000100110 1
b1000000110010100101110000100110 e
b1000000110010100101110000100110 ="
b1000000110010100101110000100110 >"
b10000001 2"
b10000010 4"
1%
#600
0%
#650
b11000010000100110101101000111110 o
b11000010000100110101101000111110 !"
b11000010000100110101101000111110 /
b11000010000100110101101000111110 C
b1000010000100110101101000111110 x
b1000010000100110101101000111110 <
b1100100110101101000111110 w
b1100100110101101000111110 -"
b1100100110101101000111110 ;
b1100100110101101000111110 P
b1100100110101101000111110 z
b1100100110101101000111110 +"
b1100100110101101000111110 >
b1100100110101101000111110 N
b111100110101101000111110 y
b111100110101101000111110 =
b11001010010111000010 {
b100 &"
1""
b10000100 '"
b11001010010111000010 ?
b100 H
1D
b10000100 I
b1000000010010100101110000100110 #"
b1000000010010100101110000100110 E
b1000000010010100101110000100110 8"
b1000000010010100101110000100110 $
b1000000010010100101110000100110 4
b1000000010010100101110000100110 /"
b1000000010010100101110000100110 .
b1000000010010100101110000100110 K
b1000000010010100101110000100110 ^
b1000000010010100101110000100110 m
b1000000010010100101110000100110 s
b1000000010010100101110000100110 f
b10000000 d
b10000000 c
1_
b1000000001101011010001111011010 W
b10000000 b
b10000000 j
b10000000 h
b1000000010010100101110000100110 a
b1000000010010100101110000100110 "
b1000000010010100101110000100110 1
b1000000010010100101110000100110 e
b1000000010010100101110000100110 ="
b1000000010010100101110000100110 >"
b10000000 2"
b10000001 4"
1%
#700
0%
#750
b11000010000110011010110100011111 o
b11000010000110011010110100011111 !"
b11000010000110011010110100011111 /
b11000010000110011010110100011111 C
b1000010000110011010110100011111 x
b1000010000110011010110100011111 <
b1100110011010110100011111 w
b1100110011010110100011111 -"
b1100110011010110100011111 ;
b1100110011010110100011111 P
b1100110011010110100011111 z
b1100110011010110100011111 +"
b1100110011010110100011111 >
b1100110011010110100011111 N
b111110011010110100011111 y
b111110011010110100011111 =
b1100101001011100001 {
b101 &"
1""
b10000100 '"
b1100101001011100001 ?
b101 H
1D
b10000100 I
b111111110010100101110000100110 #"
b111111110010100101110000100110 E
b111111110010100101110000100110 8"
b111111110010100101110000100110 $
b111111110010100101110000100110 4
b111111110010100101110000100110 /"
b111111110010100101110000100110 .
b111111110010100101110000100110 K
b111111110010100101110000100110 ^
b111111110010100101110000100110 m
b111111110010100101110000100110 s
b111111110010100101110000100110 f
b1111111 d
b1111111 c
1_
b111111101101011010001111011010 W
b1111111 b
b1111111 j
b1111111 h
b111111110010100101110000100110 a
b111111110010100101110000100110 "
b111111110010100101110000100110 1
b111111110010100101110000100110 e
b111111110010100101110000100110 ="
b111111110010100101110000100110 >"
b1111111 2"
b10000000 4"
1%
#800
0%
#850
b11000010000111001101011010010000 o
b11000010000111001101011010010000 !"
b11000010000111001101011010010000 /
b11000010000111001101011010010000 C
b1000010000111001101011010010000 x
b1000010000111001101011010010000 <
b1100111001101011010010000 w
b1100111001101011010010000 -"
b1100111001101011010010000 ;
b1100111001101011010010000 P
b1100111001101011010010000 z
b1100111001101011010010000 +"
b1100111001101011010010000 >
b1100111001101011010010000 N
b111111001101011010010000 y
b111111001101011010010000 =
b110010100101110000 {
b110 &"
1""
b10000100 '"
b110010100101110000 ?
b110 H
1D
b10000100 I
b111111010010100101110000100110 #"
b111111010010100101110000100110 E
b111111010010100101110000100110 8"
b111111010010100101110000100110 $
b111111010010100101110000100110 4
b111111010010100101110000100110 /"
b111111010010100101110000100110 .
b111111010010100101110000100110 K
b111111010010100101110000100110 ^
b111111010010100101110000100110 m
b111111010010100101110000100110 s
b111111010010100101110000100110 f
b1111110 d
b1111110 c
1_
b111111001101011010001111011010 W
b1111110 b
b1111110 j
b1111110 h
b111111010010100101110000100110 a
b111111010010100101110000100110 "
b111111010010100101110000100110 1
b111111010010100101110000100110 e
b111111010010100101110000100110 ="
b111111010010100101110000100110 >"
b1111110 2"
b1111111 4"
1%
#900
0%
#950
b11000010000111100110101101001000 o
b11000010000111100110101101001000 !"
b11000010000111100110101101001000 /
b11000010000111100110101101001000 C
b1000010000111100110101101001000 x
b1000010000111100110101101001000 <
b1100111100110101101001000 w
b1100111100110101101001000 -"
b1100111100110101101001000 ;
b1100111100110101101001000 P
b1100111100110101101001000 z
b1100111100110101101001000 +"
b1100111100110101101001000 >
b1100111100110101101001000 N
b111111100110101101001000 y
b111111100110101101001000 =
b11001010010111000 {
b111 &"
1""
b10000100 '"
b11001010010111000 ?
b111 H
1D
b10000100 I
b111110110010100101110000100110 #"
b111110110010100101110000100110 E
b111110110010100101110000100110 8"
b111110110010100101110000100110 $
b111110110010100101110000100110 4
b111110110010100101110000100110 /"
b111110110010100101110000100110 .
b111110110010100101110000100110 K
b111110110010100101110000100110 ^
b111110110010100101110000100110 m
b111110110010100101110000100110 s
b111110110010100101110000100110 f
b1111101 d
b1111101 c
1_
b111110101101011010001111011010 W
b1111101 b
b1111101 j
b1111101 h
b111110110010100101110000100110 a
b111110110010100101110000100110 "
b111110110010100101110000100110 1
b111110110010100101110000100110 e
b111110110010100101110000100110 ="
b111110110010100101110000100110 >"
b1111101 2"
b1111110 4"
1%
#1000
0%
#1050
b11000010000111110011010110100100 o
b11000010000111110011010110100100 !"
b11000010000111110011010110100100 /
b11000010000111110011010110100100 C
b1000010000111110011010110100100 x
b1000010000111110011010110100100 <
b1100111110011010110100100 w
b1100111110011010110100100 -"
b1100111110011010110100100 ;
b1100111110011010110100100 P
b1100111110011010110100100 z
b1100111110011010110100100 +"
b1100111110011010110100100 >
b1100111110011010110100100 N
b111111110011010110100100 y
b111111110011010110100100 =
b1100101001011100 {
b1000 &"
1""
b10000100 '"
b1100101001011100 ?
b1000 H
1D
b10000100 I
b111110010010100101110000100110 #"
b111110010010100101110000100110 E
b111110010010100101110000100110 8"
b111110010010100101110000100110 $
b111110010010100101110000100110 4
b111110010010100101110000100110 /"
b111110010010100101110000100110 .
b111110010010100101110000100110 K
b111110010010100101110000100110 ^
b111110010010100101110000100110 m
b111110010010100101110000100110 s
b111110010010100101110000100110 f
b1111100 d
b1111100 c
1_
b111110001101011010001111011010 W
b1111100 b
b1111100 j
b1111100 h
b111110010010100101110000100110 a
b111110010010100101110000100110 "
b111110010010100101110000100110 1
b111110010010100101110000100110 e
b111110010010100101110000100110 ="
b111110010010100101110000100110 >"
b1111100 2"
b1111101 4"
1%
#1100
0%
#1150
b11000010000111111001101011010010 o
b11000010000111111001101011010010 !"
b11000010000111111001101011010010 /
b11000010000111111001101011010010 C
b1000010000111111001101011010010 x
b1000010000111111001101011010010 <
b1100111111001101011010010 w
b1100111111001101011010010 -"
b1100111111001101011010010 ;
b1100111111001101011010010 P
b1100111111001101011010010 z
b1100111111001101011010010 +"
b1100111111001101011010010 >
b1100111111001101011010010 N
b111111111001101011010010 y
b111111111001101011010010 =
b110010100101110 {
b1001 &"
1""
b10000100 '"
b110010100101110 ?
b1001 H
1D
b10000100 I
b111101110010100101110000100110 #"
b111101110010100101110000100110 E
b111101110010100101110000100110 8"
b111101110010100101110000100110 $
b111101110010100101110000100110 4
b111101110010100101110000100110 /"
b111101110010100101110000100110 .
b111101110010100101110000100110 K
b111101110010100101110000100110 ^
b111101110010100101110000100110 m
b111101110010100101110000100110 s
b111101110010100101110000100110 f
b1111011 d
b1111011 c
1_
b111101101101011010001111011010 W
b1111011 b
b1111011 j
b1111011 h
b111101110010100101110000100110 a
b111101110010100101110000100110 "
b111101110010100101110000100110 1
b111101110010100101110000100110 e
b111101110010100101110000100110 ="
b111101110010100101110000100110 >"
b1111011 2"
b1111100 4"
1%
#1200
0%
#1250
b11000010000111111100110101101001 o
b11000010000111111100110101101001 !"
b11000010000111111100110101101001 /
b11000010000111111100110101101001 C
b1000010000111111100110101101001 x
b1000010000111111100110101101001 <
b1100111111100110101101001 w
b1100111111100110101101001 -"
b1100111111100110101101001 ;
b1100111111100110101101001 P
b1100111111100110101101001 z
b1100111111100110101101001 +"
b1100111111100110101101001 >
b1100111111100110101101001 N
b111111111100110101101001 y
b111111111100110101101001 =
b11001010010111 {
b1010 &"
1""
b10000100 '"
b11001010010111 ?
b1010 H
1D
b10000100 I
b111101010010100101110000100110 #"
b111101010010100101110000100110 E
b111101010010100101110000100110 8"
b111101010010100101110000100110 $
b111101010010100101110000100110 4
b111101010010100101110000100110 /"
b111101010010100101110000100110 .
b111101010010100101110000100110 K
b111101010010100101110000100110 ^
b111101010010100101110000100110 m
b111101010010100101110000100110 s
b111101010010100101110000100110 f
b1111010 d
b1111010 c
1_
b111101001101011010001111011010 W
b1111010 b
b1111010 j
b1111010 h
b111101010010100101110000100110 a
b111101010010100101110000100110 "
b111101010010100101110000100110 1
b111101010010100101110000100110 e
b111101010010100101110000100110 ="
b111101010010100101110000100110 >"
b1111010 2"
b1111011 4"
1%
#1300
0%
#1350
b11000010000111111110011010110101 o
b11000010000111111110011010110101 !"
b11000010000111111110011010110101 /
b11000010000111111110011010110101 C
b1000010000111111110011010110101 x
b1000010000111111110011010110101 <
b1100111111110011010110101 w
b1100111111110011010110101 -"
b1100111111110011010110101 ;
b1100111111110011010110101 P
b1100111111110011010110101 z
b1100111111110011010110101 +"
b1100111111110011010110101 >
b1100111111110011010110101 N
b111111111110011010110101 y
b111111111110011010110101 =
b1100101001011 {
b1011 &"
1""
b10000100 '"
b1100101001011 ?
b1011 H
1D
b10000100 I
b111100110010100101110000100110 #"
b111100110010100101110000100110 E
b111100110010100101110000100110 8"
b111100110010100101110000100110 $
b111100110010100101110000100110 4
b111100110010100101110000100110 /"
b111100110010100101110000100110 .
b111100110010100101110000100110 K
b111100110010100101110000100110 ^
b111100110010100101110000100110 m
b111100110010100101110000100110 s
b111100110010100101110000100110 f
b1111001 d
b1111001 c
1_
b111100101101011010001111011010 W
b1111001 b
b1111001 j
b1111001 h
b111100110010100101110000100110 a
b111100110010100101110000100110 "
b111100110010100101110000100110 1
b111100110010100101110000100110 e
b111100110010100101110000100110 ="
b111100110010100101110000100110 >"
b1111001 2"
b1111010 4"
1%
#1400
0%
#1450
b11000010000111111111001101011011 o
b11000010000111111111001101011011 !"
b11000010000111111111001101011011 /
b11000010000111111111001101011011 C
b1000010000111111111001101011011 x
b1000010000111111111001101011011 <
b1100111111111001101011011 w
b1100111111111001101011011 -"
b1100111111111001101011011 ;
b1100111111111001101011011 P
b1100111111111001101011011 z
b1100111111111001101011011 +"
b1100111111111001101011011 >
b1100111111111001101011011 N
b111111111111001101011011 y
b111111111111001101011011 =
b110010100101 {
b1100 &"
1""
b10000100 '"
b110010100101 ?
b1100 H
1D
b10000100 I
b111100010010100101110000100110 #"
b111100010010100101110000100110 E
b111100010010100101110000100110 8"
b111100010010100101110000100110 $
b111100010010100101110000100110 4
b111100010010100101110000100110 /"
b111100010010100101110000100110 .
b111100010010100101110000100110 K
b111100010010100101110000100110 ^
b111100010010100101110000100110 m
b111100010010100101110000100110 s
b111100010010100101110000100110 f
b1111000 d
b1111000 c
1_
b111100001101011010001111011010 W
b1111000 b
b1111000 j
b1111000 h
b111100010010100101110000100110 a
b111100010010100101110000100110 "
b111100010010100101110000100110 1
b111100010010100101110000100110 e
b111100010010100101110000100110 ="
b111100010010100101110000100110 >"
b1111000 2"
b1111001 4"
1%
#1500
0%
