code/20_neuron_new/neuron_tb.vcd
$date
	Tue Apr 22 14:48:23 2025
$end
$version
	Icarus Verilog
$end
$timescale
	1ps
$end
$scope module neuron_tb $end
$var wire 1 ! spike $end
$var reg 1 " clk $end
$var reg 6 # count [5:0] $end
$var reg 1 $ reset $end
$var reg 32 % weight_in [31:0] $end
$scope module n1 $end
$var wire 1 " clk $end
$var wire 1 $ reset $end
$var wire 32 & weight_in [31:0] $end
$var wire 1 ! spike $end
$var wire 32 ' output_potential_decay [31:0] $end
$var wire 32 ( mult_output [31:0] $end
$var wire 32 ) final_potential [31:0] $end
$scope module m0 $end
$var wire 1 " clk $end
$var wire 1 $ reset $end
$var wire 1 * set $end
$var wire 32 + weight_in [31:0] $end
$var wire 32 , mult_output [31:0] $end
$var wire 1 - excpetion $end
$scope module add1 $end
$var wire 1 - Exception $end
$var wire 32 . a_operand [31:0] $end
$var wire 1 " clk $end
$var wire 32 / operand_a [31:0] $end
$var wire 32 0 operand_b [31:0] $end
$var wire 1 1 output_sign $end
$var wire 1 $ reset $end
$var wire 24 2 significand_b [23:0] $end
$var wire 25 3 significand_add [24:0] $end
$var wire 24 4 significand_a [23:0] $end
$var wire 8 5 result_exp [7:0] $end
$var wire 8 6 exponent_diff [7:0] $end
$var wire 24 7 aligned_b [23:0] $end
$var wire 24 8 aligned_a [23:0] $end
$var wire 31 9 add_sum [30:0] $end
$var reg 32 : accumulator [31:0] $end
$var reg 32 ; result [31:0] $end
$upscope $end
$upscope $end
$scope module pa0 $end
$var wire 32 < input_weight [31:0] $end
$var wire 32 = weight_added [31:0] $end
$var wire 32 > reset_value [31:0] $end
$var wire 1 ? greater $end
$var wire 32 @ decayed_potential [31:0] $end
$var wire 1 A Exception1 $end
$var wire 1 B Exception $end
$var reg 32 C final_potential [31:0] $end
$var reg 2 D model [1:0] $end
$var reg 1 ! spike $end
$var reg 32 E v_threshold [31:0] $end
$scope module Addition_Subtraction_1 $end
$var wire 1 F AddBar_Sub $end
$var wire 1 A Exception $end
$var wire 32 G b_operand [31:0] $end
$var wire 1 H operation_sub_addBar $end
$var wire 1 I output_sign $end
$var wire 25 J subtraction_diff [24:0] $end
$var wire 31 K sub_diff [30:0] $end
$var wire 24 L significand_sub_complement [23:0] $end
$var wire 25 M significand_sub [24:0] $end
$var wire 24 N significand_b_add_sub [23:0] $end
$var wire 24 O significand_b [23:0] $end
$var wire 25 P significand_add [24:0] $end
$var wire 24 Q significand_a [23:0] $end
$var wire 32 R result [31:0] $end
$var wire 1 S perform $end
$var wire 32 T operand_b [31:0] $end
$var wire 32 U operand_a [31:0] $end
$var wire 8 V exponent_sub [7:0] $end
$var wire 8 W exponent_diff [7:0] $end
$var wire 8 X exponent_b_add_sub [7:0] $end
$var wire 31 Y add_sum [30:0] $end
$var wire 32 Z a_operand [31:0] $end
$var wire 1 [ Comp_enable $end
$scope module pe $end
$var wire 8 \ Exponent_a [7:0] $end
$var wire 25 ] significand [24:0] $end
$var wire 8 ^ Exponent_sub [7:0] $end
$var reg 25 _ Significand [24:0] $end
$var reg 5 ` shift [4:0] $end
$upscope $end
$upscope $end
$scope module Addition_Subtraction_2 $end
$var wire 1 a AddBar_Sub $end
$var wire 1 B Exception $end
$var wire 32 b a_operand [31:0] $end
$var wire 1 c operation_sub_addBar $end
$var wire 1 d output_sign $end
$var wire 25 e subtraction_diff [24:0] $end
$var wire 31 f sub_diff [30:0] $end
$var wire 24 g significand_sub_complement [23:0] $end
$var wire 25 h significand_sub [24:0] $end
$var wire 24 i significand_b_add_sub [23:0] $end
$var wire 24 j significand_b [23:0] $end
$var wire 25 k significand_add [24:0] $end
$var wire 24 l significand_a [23:0] $end
$var wire 32 m result [31:0] $end
$var wire 1 n perform $end
$var wire 32 o operand_b [31:0] $end
$var wire 32 p operand_a [31:0] $end
$var wire 8 q exponent_sub [7:0] $end
$var wire 8 r exponent_diff [7:0] $end
$var wire 8 s exponent_b_add_sub [7:0] $end
$var wire 32 t b_operand [31:0] $end
$var wire 31 u add_sum [30:0] $end
$var wire 1 v Comp_enable $end
$scope module pe $end
$var wire 8 w Exponent_a [7:0] $end
$var wire 25 x significand [24:0] $end
$var wire 8 y Exponent_sub [7:0] $end
$var reg 25 z Significand [24:0] $end
$var reg 5 { shift [4:0] $end
$upscope $end
$upscope $end
$scope module comparator_2 $end
$var wire 32 | a_operand [31:0] $end
$var wire 32 } b_operand [31:0] $end
$var wire 32 ~ result [31:0] $end
$var wire 1 !" Exception $end
$var reg 1 ? greater $end
$var reg 1 "" sign $end
$scope module Addition_Subtraction_1 $end
$var wire 1 #" AddBar_Sub $end
$var wire 1 !" Exception $end
$var wire 32 $" a_operand [31:0] $end
$var wire 32 %" b_operand [31:0] $end
$var wire 1 &" operation_sub_addBar $end
$var wire 1 '" output_sign $end
$var wire 25 (" subtraction_diff [24:0] $end
$var wire 31 )" sub_diff [30:0] $end
$var wire 24 *" significand_sub_complement [23:0] $end
$var wire 25 +" significand_sub [24:0] $end
$var wire 24 ," significand_b_add_sub [23:0] $end
$var wire 24 -" significand_b [23:0] $end
$var wire 25 ." significand_add [24:0] $end
$var wire 24 /" significand_a [23:0] $end
$var wire 32 0" result [31:0] $end
$var wire 1 1" perform $end
$var wire 32 2" operand_b [31:0] $end
$var wire 32 3" operand_a [31:0] $end
$var wire 8 4" exponent_sub [7:0] $end
$var wire 8 5" exponent_diff [7:0] $end
$var wire 8 6" exponent_b_add_sub [7:0] $end
$var wire 31 7" add_sum [30:0] $end
$var wire 1 8" Comp_enable $end
$scope module pe $end
$var wire 8 9" Exponent_a [7:0] $end
$var wire 25 :" significand [24:0] $end
$var wire 8 ;" Exponent_sub [7:0] $end
$var reg 25 <" Significand [24:0] $end
$var reg 5 =" shift [4:0] $end
$upscope $end
$upscope $end
$upscope $end
$upscope $end
$scope module pd0 $end
$var wire 1 " clk $end
$var wire 32 >" new_potential [31:0] $end
$var wire 32 ?" result_divide_by_2_plus_4 [31:0] $end
$var wire 1 @" Exception $end
$var reg 8 A" adjusted_exponent [7:0] $end
$var reg 4 B" decay_rate [3:0] $end
$var reg 8 C" exponent [7:0] $end
$var reg 8 D" exponent_divided_by_2 [7:0] $end
$var reg 8 E" exponent_divided_by_4 [7:0] $end
$var reg 23 F" mantissa [22:0] $end
$var reg 32 G" membrane_potential [31:0] $end
$var reg 2 H" model [1:0] $end
$var reg 12 I" neuron_address [11:0] $end
$var reg 32 J" number_divided_by_2 [31:0] $end
$var reg 32 K" number_divided_by_4 [31:0] $end
$var reg 32 L" output_potential_decay [31:0] $end
$var reg 32 M" output_potential_decay_LIF [31:0] $end
$var reg 2 N" sign [1:0] $end
$scope module Addition_Subtraction_1 $end
$var wire 1 O" AddBar_Sub $end
$var wire 1 @" Exception $end
$var wire 32 P" a_operand [31:0] $end
$var wire 32 Q" b_operand [31:0] $end
$var wire 1 R" operation_sub_addBar $end
$var wire 1 S" output_sign $end
$var wire 25 T" subtraction_diff [24:0] $end
$var wire 31 U" sub_diff [30:0] $end
$var wire 24 V" significand_sub_complement [23:0] $end
$var wire 25 W" significand_sub [24:0] $end
$var wire 24 X" significand_b_add_sub [23:0] $end
$var wire 24 Y" significand_b [23:0] $end
$var wire 25 Z" significand_add [24:0] $end
$var wire 24 [" significand_a [23:0] $end
$var wire 32 \" result [31:0] $end
$var wire 1 ]" perform $end
$var wire 32 ^" operand_b [31:0] $end
$var wire 32 _" operand_a [31:0] $end
$var wire 8 `" exponent_sub [7:0] $end
$var wire 8 a" exponent_diff [7:0] $end
$var wire 8 b" exponent_b_add_sub [7:0] $end
$var wire 31 c" add_sum [30:0] $end
$var wire 1 d" Comp_enable $end
$scope module pe $end
$var wire 8 e" Exponent_a [7:0] $end
$var wire 25 f" significand [24:0] $end
$var wire 8 g" Exponent_sub [7:0] $end
$var reg 25 h" Significand [24:0] $end
$var reg 5 i" shift [4:0] $end
$upscope $end
$upscope $end
$upscope $end
$upscope $end
$upscope $end
$enddefinitions $end
#0
$dumpvars
bx i"
bx h"
bx g"
bx f"
bx e"
xd"
bx c"
bx b"
bx a"
bx `"
bx _"
bx ^"
x]"
bx \"
bx ["
bx Z"
bx Y"
bx X"
bx W"
bx V"
bx U"
bx T"
xS"
xR"
bx Q"
bx P"
0O"
bx N"
bx M"
bx L"
bx K"
bx J"
b0 I"
b0 H"
b1000001110111101011100001010010 G"
bx F"
bx E"
bx D"
bx C"
b10 B"
bx A"
x@"
bx ?"
bx >"
bx ="
bx <"
bx ;"
bx :"
bx 9"
x8"
bx 7"
bx 6"
bx 5"
bx 4"
bx 3"
bx 2"
x1"
bx 0"
bx /"
bx ."
bx -"
bx ,"
bx +"
bx *"
bx )"
bx ("
x'"
x&"
b1000010001000000000000000000000 %"
bx $"
1#"
x""
x!"
bx ~
b1000010001000000000000000000000 }
bx |
bx {
bx z
bx y
bx x
bx w
xv
bx u
bx t
bx s
bx r
bx q
bx p
bx o
xn
bx m
bx l
bx k
bx j
bx i
bx h
bx g
bx f
bx e
xd
xc
b0 b
0a
bx `
bx _
bx ^
bx ]
bx \
x[
bx Z
bx Y
bx X
bx W
bx V
bx U
bx T
xS
bx R
bx Q
bx P
bx O
bx N
bx M
bx L
bx K
bx J
xI
xH
b1000010001000000000000000000000 G
1F
b1000010001000000000000000000000 E
b0 D
bx C
xB
xA
bx @
x?
bx >
bx =
b0 <
b0 ;
b0 :
b0 9
b0 8
b0 7
b0 6
b0 5
b0 4
b0 3
b0 2
01
b0 0
b0 /
b0 .
0-
b0 ,
b0 +
z*
bx )
b0 (
bx '
b0 &
b0 %
1$
b0 #
0"
0!
$end
#5000
b1000001110100001010001111011000 )"
b10000011 4"
b10000011 ;"
b1 ="
b110100001010001111011000 ("
b110100001010001111011000 <"
b1011010000101000111101100 +"
b1011010000101000111101100 :"
b1000001110100001010001111011000 K
b10000011 V
b10000011 ^
b1 `
b110100001010001111011000 J
b110100001010001111011000 _
b110010000101000111101100 *"
0?
1""
b1011010000101000111101100 M
b1011010000101000111101100 ]
b11000001110100001010001111011000 ~
b11000001110100001010001111011000 0"
b110010000101000111101100 L
b11000001110100001010001111011000 >
b11000001110100001010001111011000 R
b1101111010111000010100 ,"
11"
b10000100 6"
b10 5"
1'"
18"
b1101111010111000010100 N
1S
b10000100 X
b10 W
1I
1[
b1000010000000000000000000000000 7"
b1000010000000000000000000000000 Y
b0 ."
b0 P
b110111101011100001010010 -"
0!"
b101000000000000000000000 /"
b110111101011100001010010 O
0A
b101000000000000000000000 Q
b10000100 9"
b10000100 \
0&"
0H
b1000001001000010100011110101110 f
b10000010 q
b10000010 y
b0 {
b1001000010100011110101110 e
b1001000010100011110101110 z
b1000001010111101011100001010010 2"
b1000010001000000000000000000000 3"
b1000001010111101011100001010010 T
b1000010001000000000000000000000 U
b1000001010111101011100001010010 G"
b110111101011100001010010 h
b110111101011100001010010 x
b1000001010111101011100001010010 )
b1000001010111101011100001010010 C
b1000001010111101011100001010010 >"
b0 g
b1000001010111101011100001010010 =
b1000001010111101011100001010010 Z
b1000001010111101011100001010010 m
b1000001010111101011100001010010 |
b1000001010111101011100001010010 $"
1c
b110111101011100001010010 k
b0 j
0B
b110111101011100001010010 l
b1000001010111101011100001010010 u
b0 i
1n
b10000010 s
b10000010 r
0d
b10000010 w
b0 o
b1000001010111101011100001010010 p
1v
b1000001010111101011100001010010 '
b1000001010111101011100001010010 @
b1000001010111101011100001010010 t
b1000001010111101011100001010010 L"
b1000001010111101011100001010010 M"
b10000010 A"
b10111101011100001010010 F"
b10000011 C"
b0 N"
b1 #
1"
0$
#10000
0"
#15000
b11000010000001000010100011110110 ~
b11000010000001000010100011110110 0"
b11000010000001000010100011110110 >
b11000010000001000010100011110110 R
b1000010000001000010100011110110 )"
b10000100 4"
b10000100 ;"
b0 ="
b1100001000010100011110110 ("
b1100001000010100011110110 <"
b1000010000001000010100011110110 K
b10000100 V
b10000100 ^
b0 `
b1100001000010100011110110 J
b1100001000010100011110110 _
b1100001000010100011110110 +"
b1100001000010100011110110 :"
b1100001000010100011110110 M
b1100001000010100011110110 ]
b111001000010100011110110 *"
b111001000010100011110110 L
b110111101011100001010 ,"
b11 5"
11"
b10000100 6"
b110111101011100001010 N
b11 W
1S
b10000100 X
b1000000110111101011100001010010 2"
b1000000110111101011100001010010 T
b1000000110111101011100001010010 G"
b1000000110111101011100001010010 )
b1000000110111101011100001010010 C
b1000000110111101011100001010010 >"
b1000000110111101011100001010010 =
b1000000110111101011100001010010 Z
b1000000110111101011100001010010 m
b1000000110111101011100001010010 |
b1000000110111101011100001010010 $"
b1000000110111101011100001010010 u
b10000001 s
b10000001 r
1n
b1000000101000010100011110101110 f
b10000001 q
b10000001 y
b10000001 w
b1000000110111101011100001010010 p
b1000000110111101011100001010010 '
b1000000110111101011100001010010 @
b1000000110111101011100001010010 t
b1000000110111101011100001010010 L"
b10 #
b1000000110111101011100001010010 M"
b10000001 A"
b10000010 C"
1"
#20000
0"
#21000
b101101000000000000000000 3
b101101000000000000000000 8
b1000010001101000000000000000000 9
b101101000000000000000000 4
b10000100 6
b10000100 5
b1000010001101000000000000000000 /
b1000010001101000000000000000000 %
b1000010001101000000000000000000 &
b1000010001101000000000000000000 +
b1000010001101000000000000000000 .
#25000
b1000010101101000000000000000000 9
b101101000000000000000000 7
b101101000000000000000000 2
b0 6
b1011010000000000000000000 3
b101101000000000000000000 8
b1000010001101000000000000000000 0
b1000010001101000000000000000000 :
b11000010000100100001010001111011 ~
b11000010000100100001010001111011 0"
b11000010000100100001010001111011 >
b11000010000100100001010001111011 R
b1000010000100100001010001111011 )"
b1000010000100100001010001111011 K
b1100100100001010001111011 ("
b1100100100001010001111011 <"
b1100100100001010001111011 J
b1100100100001010001111011 _
b1100100100001010001111011 +"
b1100100100001010001111011 :"
b1100100100001010001111011 M
b1100100100001010001111011 ]
b111100100001010001111011 *"
b111100100001010001111011 L
b11011110101110000101 ,"
b100 5"
11"
b10000100 6"
b11011110101110000101 N
b100 W
1S
b10000100 X
b1000000010111101011100001010010 2"
b1000000010111101011100001010010 T
b1000000010111101011100001010010 G"
b1000000010111101011100001010010 )
b1000000010111101011100001010010 C
b1000000010111101011100001010010 >"
b1000000010111101011100001010010 =
b1000000010111101011100001010010 Z
b1000000010111101011100001010010 m
b1000000010111101011100001010010 |
b1000000010111101011100001010010 $"
b1000000010111101011100001010010 u
b10000000 s
b10000000 r
1n
b1000000001000010100011110101110 f
b10000000 q
b10000000 y
b10000000 w
b1000000010111101011100001010010 p
b1000000010111101011100001010010 '
b1000000010111101011100001010010 @
b1000000010111101011100001010010 t
b1000000010111101011100001010010 L"
b1000000010111101011100001010010 M"
b10000000 A"
b10000001 C"
b11 #
1"
#30000
0"
#35000
1!
1?
0""
b10000001 4"
b10000001 ;"
b11 ="
b10000001 V
b10000001 ^
b11 `
b101000000000000000000000 -"
b101110101111010111000010 /"
0'"
b101000000000000000000000 O
b101110101111010111000010 Q
b1000010001110101111010111000010 3"
08"
0I
b1000010001110101111010111000010 U
0[
b1010011000000000000000000 e
b1010011000000000000000000 z
b101101000000000000000000 h
b101101000000000000000000 x
b101101000000000000000000 l
b101110101111010111000010 k
b1101111010111000010 i
b110111101011100001010010 j
0v
b1000011100000000000000000 3
b10110100000000000000000 8
b1000011000001110000000000000000 9
b111111110111101011100001010010 o
b1 6
b10000101 5
b1000010001101000000000000000000 (
b1000010001101000000000000000000 ,
b1000010001101000000000000000000 ;
b1000010001101000000000000000000 <
b1000010001101000000000000000000 b
b1000010101101000000000000000000 0
b1000010101101000000000000000000 :
b1000000110101111010111000010000 ~
b1000000110101111010111000010000 0"
b1000000110101111010111000010000 >
b1000000110101111010111000010000 R
b1000000110101111010111000010000 )"
b1000000110101111010111000010000 K
b110101111010111000010000 ("
b110101111010111000010000 <"
b110101111010111000010000 J
b110101111010111000010000 _
b1000110101111010111000010 +"
b1000110101111010111000010 :"
b1000110101111010111000010 M
b1000110101111010111000010 ]
b11000000000000000000000 *"
b11000000000000000000000 L
b101000000000000000000000 ,"
b0 5"
11"
b10000100 6"
b101000000000000000000000 N
b0 W
1S
b10000100 X
b1000010001000000000000000000000 2"
b1000010001000000000000000000000 T
b1000000110101111010111000010000 G"
b1000000110101111010111000010000 )
b1000000110101111010111000010000 C
b1000000110101111010111000010000 >"
b1000010001110101111010111000010 =
b1000010001110101111010111000010 Z
b1000010001110101111010111000010 m
b1000010001110101111010111000010 |
b1000010001110101111010111000010 $"
b1000010001110101111010111000010 u
b10000100 s
b101 r
1n
b1000010010011000000000000000000 f
b10000100 q
b10000100 y
b10000100 w
b1000010001101000000000000000000 p
b111111110111101011100001010010 '
b111111110111101011100001010010 @
b111111110111101011100001010010 t
b111111110111101011100001010010 L"
b100 #
b111111110111101011100001010010 M"
b1111111 A"
b10000000 C"
1"
#40000
0"
#45000
b101100000000000000000000 *"
b101100000000000000000000 L
b1000010100000000000000000000000 7"
b1000010100000000000000000000000 Y
b10100000000000000000000 ,"
b10000101 6"
b1 5"
11"
b10000101 9"
b10100000000000000000000 N
b10000101 X
b1 W
1S
b10000101 \
b1000010110011000000000000000000 f
b10000101 q
b10000101 y
b10000101 w
b100001110000000000000000 7
b101101000000000000000000 3
b1011010000000000000000 8
b1000011001101000000000000000000 9
b1000010101101000000000000000000 p
b100001110000000000000000 2
b10 6
b10000110 5
b1000010101101000000000000000000 (
b1000010101101000000000000000000 ,
b1000010101101000000000000000000 ;
b1000010101101000000000000000000 <
b1000010101101000000000000000000 b
b1000011000001110000000000000000 0
b1000011000001110000000000000000 :
b1000010010101010111101011100000 G"
b1000010010101010111101011100000 )
b1000010010101010111101011100000 C
b1000010010101010111101011100000 >"
b1000010010101010111101011100000 ~
b1000010010101010111101011100000 0"
b1000010010101010111101011100000 >
b1000010010101010111101011100000 R
b1000010010101010111101011100000 )"
b10000100 4"
b10000100 ;"
b1 ="
b110101010111101011100000 ("
b110101010111101011100000 <"
b1000010010101010111101011100000 K
b10000100 V
b10000100 ^
b1 `
b110101010111101011100000 J
b110101010111101011100000 _
b1011010101011110101110000 +"
b1011010101011110101110000 :"
b1011010101011110101110000 M
b1011010101011110101110000 ]
b101110101011110101110000 /"
b101110101011110101110000 Q
b1000010101110101011110101110000 3"
b1000010101110101011110101110000 U
b1000010101110101011110101110000 =
b1000010101110101011110101110000 Z
b1000010101110101011110101110000 m
b1000010101110101011110101110000 |
b1000010101110101011110101110000 $"
b1000010101110101011110101110000 u
b110101111010111000010000 j
b101110101011110101110000 k
b1101011110101110000 i
b101 r
1n
b10000101 s
b1000000010101111010111000010000 o
b1000000010101111010111000010000 '
b1000000010101111010111000010000 @
b1000000010101111010111000010000 t
b1000000010101111010111000010000 L"
b1000000010101111010111000010000 M"
b10000000 A"
b10101111010111000010000 F"
b10000001 C"
b101 #
1"
#50000
0"
#55000
b110110000000000000000000 *"
b110110000000000000000000 L
b1000011000000000000000000000000 7"
b1000011000000000000000000000000 Y
b1010000000000000000000 ,"
b10000110 6"
b10 5"
11"
b10000110 9"
b1010000000000000000000 N
b10000110 X
b10 W
1S
b10000110 \
b1011110010000000000000000 e
b1011110010000000000000000 z
b100001110000000000000000 h
b100001110000000000000000 x
b1000011011000010000000000000000 9
b100001110000000000000000 l
b1000011011110010000000000000000 f
b10000110 q
b10000110 y
b10000110 w
b111000010000000000000000 3
b101101000000000000000000 7
b1000011000001110000000000000000 p
b101101000000000000000000 2
b1000011000001110000000000000000 (
b1000011000001110000000000000000 ,
b1000011000001110000000000000000 ;
b1000011000001110000000000000000 <
b1000011000001110000000000000000 b
b1000011001101000000000000000000 0
b1000011001101000000000000000000 :
b1000010111100110101111010111000 G"
b1000010111100110101111010111000 )
b1000010111100110101111010111000 C
b1000010111100110101111010111000 >"
b1000010111100110101111010111000 ~
b1000010111100110101111010111000 0"
b1000010111100110101111010111000 >
b1000010111100110101111010111000 R
b1000010111100110101111010111000 )"
b10000101 4"
b10000101 ;"
b1 ="
b111100110101111010111000 ("
b111100110101111010111000 <"
b1000010111100110101111010111000 K
b10000101 V
b10000101 ^
b1 `
b111100110101111010111000 J
b111100110101111010111000 _
b1011110011010111101011100 +"
b1011110011010111101011100 :"
b1011110011010111101011100 M
b1011110011010111101011100 ]
b101000011010111101011100 /"
b101000011010111101011100 Q
b1000011001000011010111101011100 3"
b1000011001000011010111101011100 U
b1000011001000011010111101011100 =
b1000011001000011010111101011100 Z
b1000011001000011010111101011100 m
b1000011001000011010111101011100 |
b1000011001000011010111101011100 $"
b1000011001000011010111101011100 u
b110101010111101011100000 j
b101000011010111101011100 k
b110101010111101011100 i
b11 r
1n
b10000110 s
b1000001110101010111101011100000 o
b1000001110101010111101011100000 '
b1000001110101010111101011100000 @
b1000001110101010111101011100000 t
b1000001110101010111101011100000 L"
b110 #
b1000001110101010111101011100000 M"
b10000011 A"
b10101010111101011100000 F"
b10000100 C"
1"
#60000
0"
#65000
b1000011010011000000000000000000 f
b1010011000000000000000000 e
b1010011000000000000000000 z
b101101000000000000000000 h
b101101000000000000000000 x
b1000011100001110000000000000000 9
b101101000000000000000000 l
b1000011100000000000000000 3
b111000010000000000000000 7
b1000011001101000000000000000000 p
b111000010000000000000000 2
b1000011001101000000000000000000 (
b1000011001101000000000000000000 ,
b1000011001101000000000000000000 ;
b1000011001101000000000000000000 <
b1000011001101000000000000000000 b
b1000011011000010000000000000000 0
b1000011011000010000000000000000 :
b1000011010010001101011110101110 G"
b1000011010010001101011110101110 )
b1000011010010001101011110101110 C
b1000011010010001101011110101110 >"
b1000011010010001101011110101110 ~
b1000011010010001101011110101110 0"
b1000011010010001101011110101110 >
b1000011010010001101011110101110 R
b1000011010010001101011110101110 )"
b10000110 4"
b10000110 ;"
b0 ="
b1110010001101011110101110 ("
b1110010001101011110101110 <"
b1000011010010001101011110101110 K
b10000110 V
b10000110 ^
b0 `
b1110010001101011110101110 J
b1110010001101011110101110 _
b1110010001101011110101110 +"
b1110010001101011110101110 :"
b1110010001101011110101110 M
b1110010001101011110101110 ]
b111100001101011110101110 /"
b111100001101011110101110 Q
b1000011011100001101011110101110 3"
b1000011011100001101011110101110 U
b1000011011100001101011110101110 =
b1000011011100001101011110101110 Z
b1000011011100001101011110101110 m
b1000011011100001101011110101110 |
b1000011011100001101011110101110 $"
b1000011011100001101011110101110 u
b111100110101111010111000 j
b111100001101011110101110 k
b1111001101011110101110 i
b10 r
1n
b10000110 s
b1000010011100110101111010111000 o
b1000010011100110101111010111000 '
b1000010011100110101111010111000 @
b1000010011100110101111010111000 t
b1000010011100110101111010111000 L"
b1000010011100110101111010111000 M"
b10000100 A"
b11100110101111010111000 F"
b10000101 C"
b111 #
1"
#70000
0"
#75000
b1000011000111110000000000000000 f
b1000111110000000000000000 e
b1000111110000000000000000 z
b111000010000000000000000 h
b111000010000000000000000 x
b111000010000000000000000 l
b100001110000000000000000 7
b100111011000000000000000 3
b101101000000000000000 8
b1000011100111011000000000000000 9
b1000011011000010000000000000000 p
b100001110000000000000000 2
b11 6
b10000111 5
b1000011011000010000000000000000 (
b1000011011000010000000000000000 ,
b1000011011000010000000000000000 ;
b1000011011000010000000000000000 <
b1000011011000010000000000000000 b
b1000011100001110000000000000000 0
b1000011100001110000000000000000 :
b0 ="
b0 `
b1000011100011101011010111101011 G"
b1100011101011010111101011 ("
b1100011101011010111101011 <"
b1100011101011010111101011 J
b1100011101011010111101011 _
b1000011100011101011010111101011 )
b1000011100011101011010111101011 C
b1000011100011101011010111101011 >"
b1100011101011010111101011 +"
b1100011101011010111101011 :"
b111011000000000000000000 *"
b1000011100011101011010111101011 ~
b1000011100011101011010111101011 0"
b1100011101011010111101011 M
b1100011101011010111101011 ]
b111011000000000000000000 L
b1000011100011101011010111101011 >
b1000011100011101011010111101011 R
b101000101011010111101011 /"
b1000011100000000000000000000000 7"
b101000101011010111101011 Q
b1000011100000000000000000000000 Y
b101000000000000000000 ,"
b10000111 6"
b11 5"
11"
b1000011100011101011010111101011 )"
b10000111 4"
b10000111 ;"
b10000111 9"
b101000000000000000000 N
b10000111 X
b11 W
1S
b1000011100011101011010111101011 K
b10000111 V
b10000111 ^
b10000111 \
b1000011101000101011010111101011 3"
b1000011101000101011010111101011 U
b1000011101000101011010111101011 =
b1000011101000101011010111101011 Z
b1000011101000101011010111101011 m
b1000011101000101011010111101011 |
b1000011101000101011010111101011 $"
b1000011101000101011010111101011 u
b110010001101011110101110 j
b1010001010110101111010111 k
b11001000110101111010111 i
b1 r
1n
b10000110 s
b1000010110010001101011110101110 o
b1000010110010001101011110101110 '
b1000010110010001101011110101110 @
b1000010110010001101011110101110 t
b1000010110010001101011110101110 L"
b1000 #
b1000010110010001101011110101110 M"
b10000101 A"
b10010001101011110101110 F"
b10000110 C"
1"
#80000
0"
#85000
b111011000000000000000000 *"
b111011000000000000000000 L
b1000011100000000000000000000000 7"
b1000011100000000000000000000000 Y
b101000000000000000000 ,"
b10000111 6"
b11 5"
11"
b10000111 4"
b10000111 ;"
b10000111 9"
b101000000000000000000 N
b10000111 X
b11 W
1S
b10000111 V
b10000111 ^
b10000111 \
b1011110010000000000000000 e
b1011110010000000000000000 z
b100001110000000000000000 h
b100001110000000000000000 x
b1000011101101000000000000000000 9
b100001110000000000000000 l
b1000011111110010000000000000000 f
b10000111 q
b10000111 y
b10000111 w
b101101000000000000000000 3
b100111011000000000000000 7
b1000011100001110000000000000000 p
b100111011000000000000000 2
b1000011100001110000000000000000 (
b1000011100001110000000000000000 ,
b1000011100001110000000000000000 ;
b1000011100001110000000000000000 <
b1000011100001110000000000000000 b
b1000011100111011000000000000000 0
b1000011100111011000000000000000 :
b1000011101110100101101011110101 G"
b1000011101110100101101011110101 )
b1000011101110100101101011110101 C
b1000011101110100101101011110101 >"
b1000011101110100101101011110101 ~
b1000011101110100101101011110101 0"
b1000011101110100101101011110101 >
b1000011101110100101101011110101 R
b1000011101110100101101011110101 )"
b1000011101110100101101011110101 K
b1101110100101101011110101 ("
b1101110100101101011110101 <"
b1101110100101101011110101 J
b1101110100101101011110101 _
b1101110100101101011110101 +"
b1101110100101101011110101 :"
b1101110100101101011110101 M
b1101110100101101011110101 ]
b110011100101101011110101 /"
b110011100101101011110101 Q
b1000011110011100101101011110101 3"
b1000011110011100101101011110101 U
b1000011110011100101101011110101 =
b1000011110011100101101011110101 Z
b1000011110011100101101011110101 m
b1000011110011100101101011110101 |
b1000011110011100101101011110101 $"
b1000011110011100101101011110101 u
b100011101011010111101011 j
b110011100101101011110101 k
b10001110101101011110101 i
b1 r
1n
b10000111 s
b1000011000011101011010111101011 o
b1000011000011101011010111101011 '
b1000011000011101011010111101011 @
b1000011000011101011010111101011 t
b1000011000011101011010111101011 L"
b1000011000011101011010111101011 M"
b10000110 A"
b11101011010111101011 F"
b10000111 C"
b1001 #
1"
#90000
0"
#95000
b1000011111000101000000000000000 f
b1011000101000000000000000 e
b1011000101000000000000000 z
b100111011000000000000000 h
b100111011000000000000000 x
b1000011110010101000000000000000 9
b100111011000000000000000 l
b110010101000000000000000 3
b101101000000000000000000 7
b1000011100111011000000000000000 p
b101101000000000000000000 2
b1000011100111011000000000000000 (
b1000011100111011000000000000000 ,
b1000011100111011000000000000000 ;
b1000011100111011000000000000000 <
b1000011100111011000000000000000 b
b1000011101101000000000000000000 0
b1000011101101000000000000000000 :
b1000011111001101010110101111010 G"
b1000011111001101010110101111010 )
b1000011111001101010110101111010 C
b1000011111001101010110101111010 >"
b1000011111001101010110101111010 ~
b1000011111001101010110101111010 0"
b1000011111001101010110101111010 >
b1000011111001101010110101111010 R
b1000011111001101010110101111010 )"
b1000011111001101010110101111010 K
b1111001101010110101111010 ("
b1111001101010110101111010 <"
b1111001101010110101111010 J
b1111001101010110101111010 _
b1111001101010110101111010 +"
b1111001101010110101111010 :"
b1111001101010110101111010 M
b1111001101010110101111010 ]
b111110101010110101111010 /"
b111110101010110101111010 Q
b1000011111110101010110101111010 3"
b1000011111110101010110101111010 U
b1000011111110101010110101111010 =
b1000011111110101010110101111010 Z
b1000011111110101010110101111010 m
b1000011111110101010110101111010 |
b1000011111110101010110101111010 $"
b1000011111110101010110101111010 u
b111110101010110101111010 k
b10111010010110101111010 i
b101110100101101011110101 j
b1000011001110100101101011110101 o
b1000011001110100101101011110101 '
b1000011001110100101101011110101 @
b1000011001110100101101011110101 t
b1000011001110100101101011110101 L"
b1010 #
b1000011001110100101101011110101 M"
b1110100101101011110101 F"
1"
#100000
0"
